{
	"names": [
		"Buzz Lighyear",
		"Woodie",
		"Jessy",
		"Forkie",
		"Rex",
		"Slinky Dog",
		"Stinky Pete",
		"Bonnie",
		"Ham",
		"Zurg",
		"Mr Potato Head",
		"Mrs Potato Head",
		"Chuck",
		"Bomb",
		"Bubbles",
		"Red",
		"Hal",
		"Gru",
		"Naina",
		"Nupur",
		"Bua",
		"Daada",
		"Daadi",
		"Mummy",
		"Dady",
		"Ms Gale",
		"Jayden",
		"Sophie",
		"Ms Jann",
		"Matthew",
		"Jane",
		"Ben",
		"Jai",
		"Tinu"
	],
	"objects": [
		"toys",
		"cookies",
		"square biscuits",
		"MnMs",
		"chocolates",
		"candies",
		"ice-creams",
		"chickens",
		"easter eggs"
	],
	"questions": [
		{
			"type": "addition",
			"text": "If _name1 has _first _object, and _name2 gives _name1 _second _object, how many total _object does _name1 have now?"
		},
		{
			"type": "addition",
			"text": "If _name1 has _first _object, and _name2 has _second _object, how many total _object do they have?"
		},
		{
			"type": "addition",
			"text": "_name1 buys _first _object, and _name2 buys _second _object from Hornsby mall. How many total _object did they buy?"
		},
		{
			"type": "addition",
			"text": "A box has _first _object. _name1 adds _second _object to the box. How many total _object does the box have now?"
		},
		{
			"type": "addition",
			"text": "_name1 gives Jai _first _object. _name2 gives Jai _second _object. How many _object does Jai have now?"
		},
		{
			"type": "addition",
			"text": "_name1 and _name2 go for a picnic. _name1 bring _first cupcakes, and _name2 brings _second cupcakes. How many total cupcakes did they bring to the picninc?"
		},
		{
			"type": "addition",
			"text": "_name1 eats _first MnMs in the morning, and _second MnMs in the afternoon. How many MnMs has _name1 eaten so far?"
		},
		{
			"type": "addition",
			"text": "_name1 and _name2 draw _first and _second Minion pictures respectively. How many total Minion pictures did they draw?"
		},
		{
			"type": "addition",
			"text": "_name1 and _name2 are playing Cricket. _name1 makes _first runs, and _name2 makes _second runs. How many total runs did they make?"
		},
		{
			"type": "addition",
			"text": "_name1 sleeps for _first hours. He then wakes up, goes for a walk, and sleeps again for _second hours. How many hours in total did _name1 sleep?"
		},
		{
			"type": "addition",
			"text": "Jai watches TV for _first hours. He then studies, and watches TV again for _second hours. How many hours in total did Jai watch TV for?"
		},

		{
			"type": "subtraction",
			"text": "If _name1 has _first _object, and _name1 gives _second _object to _name2, how many _object does _name1 have now?"
		},
		{
			"type": "subtraction",
			"text": "_name1 has _first _object. _name1 loses _second _object. How many _object does _name1 have now?"
		},
		{
			"type": "subtraction",
			"text": "_name1 has _first _object, out of which, _name1 eats _second _object. How many _object does _name1 have now?"
		},
		{
			"type": "subtraction",
			"text": "_name1 throws away _second out of _first _object. How many _object does _name1 have now?"
		},
		{
			"type": "subtraction",
			"text": "Out of _first _object, _name1 packs away _second _object. How many _object does _name1 have now?"
		},
		{
			"type": "subtraction",
			"text": "Mummy gave _name1 _first pancakes. Out of that, _name2 stole _second pancakes. How many pancakes does _name1 have now?"
		},
		{
			"type": "subtraction",
			"text": "_name1 normally watches TV for _first hours every day. Today, he watched _second hours lesser than normal. How many hours did _name1 watch TV today?"
		},
		{
			"type": "subtraction",
			"text": "_first cars were being made in a factory, out of which, _second cars were faulty. How many cars were no faulty?"
		},
		{
			"type": "subtraction",
			"text": "Castle Towers generally has _first cleaners. Because of Corona Virus, _second cleaners fell sick. How many cleaners came to Castle Towers?"
		},
		{
			"type": "subtraction",
			"text": "_name1 has _first _object. _name2 has _second _object. How many more _object does _name1 have?"
		},

		{
			"type": "multiplication",
			"text": "_name1 has _second boxes, and there are _first _object in each box. How many total _object does _name1 have?"
		},
		{
			"type": "multiplication",
			"text": "_name1 eats _second meals every day. Each meal has _first candies. How many total candies does _name eat every day?"
		},
		{
			"type": "multiplication",
			"text": "_name1 wants to make _first glasses of orange-juice for his friends. _name1 squeezes _second oranges into each glass. How many total oranges did _name1 use?"
		},
		{
			"type": "multiplication",
			"text": "_name1 wwants to buy _first _object. Each _object costs _second dollars. How much money does _name1 need?"
		},
		{
			"type": "multiplication",
			"text": "_name1 pays _name2 _second dollar for each hours of work. If _name2 works for _first hours, how much should _name1 pay _name2?"
		},
		{
			"type": "multiplication",
			"text": "_name1 goes for travelling. _name1 spends _second dollars each day. If _name1 travels for _first days, how much money has _name1 spent?"
		},
		{
			"type": "multiplication",
			"text": "_name1 is aranging his book-rack. If _name1 puts _second books in each shelf, and there are a total of _first shelves in his book-rack, how many total books can he put?"
		},
		{
			"type": "multiplication",
			"text": "_name1 goes for a vaccation to Canberra. If _name1 packs _first suitcases, and he has _second underwears in each suitcase, how many underwears did _name1 pack?"
		},
		{
			"type": "multiplication",
			"text": "There are _first bags, and there are _second candies in each bag. How many total candies do we have?"
		},
		{
			"type": "multiplication",
			"text": "_name1 bikes for _second hours each day. If _name1 bikes for _first days, how many total hours has )name1 biked for?"
		},

		{
			"type": "division",
			"text": "_name1 has _first _object. _name1 distributes _object amongst _second of his friends. How many _object does each friend have?"
		},
		{
			"type": "division",
			"text": "_name1 wants to distribute _first _object amongst _second people. How many _object does _name1 need?"
		},
		{
			"type": "division",
			"text": "There are _first _object on the floor. _name1 wants to pack them into _second boxes. How many _object would each box contain?"
		},
		{
			"type": "division",
			"text": "_name1 has _first books, which he wants to distribute amongst _second shelves. How many books would _name1 put in each shelf?"
		},
		{
			"type": "division",
			"text": "_name1 has _first dollars in his piggy-bank. Each _object costs _second dollars. How many _object can _name1 buy with _first dollars?"
		},
		{
			"type": "division",
			"text": "Yates Avenue Public School has _first children. Each class can have _second children. How many classes does Yates Avenue Public School has?"
		},
		{
			"type": "division",
			"text": "Mummy gives _name1 _first _object. _name1 wants to distribute the _object amongst _second friends. How many _object would each friend get?"
		},
		{
			"type": "division",
			"text": "_name1 wants to spend _first minutes playing Minions game. Each game lasts for _second minutes. How many Minions games can _name1 play?"
		},
		{
			"type": "division",
			"text": "_name1 goes to a Chinese restaurant. He orders _first chickens. Each plate can have _second chickens. How many plates would _name1 have?"
		},
		{
			"type": "division",
			"text": "_name1 wants to have _first piano lessons. _name1 can have _second piano lessons in each day. How many days would _name1 have his piano lessons for?"
		}
	]
}
